…
```r
p5
```

```
## # A tibble: 249,676 × 14
##    # Locus …¹ Pop 1…² Pop 2…³ Chr      BP Column Fishe…⁴ Odds …⁵ CI Lo…⁶ CI Hi…⁷
##         <dbl>   <dbl>   <dbl> <chr> <dbl>  <dbl>   <dbl>   <dbl>   <dbl>   <dbl>
##  1          1       2       3 un       85     84  1        1.01   0.359     2.85
##  2          1       2       3 un      116    115  0.429    0.576  0.202     1.65
##  3          1       2       3 un      118    117  1        0.864  0.0527   14.2 
##  4          1       2       3 un      151    150  1        1.76   0.155    20.0 
##  5          1       2       3 un      204    203  0.464    0.426  0.0376    4.84
##  6          1       2       3 un      207    206  0.0358   7.85   0.947    65.0 
##  7          1       2       3 un      247    246  1        0.954  0.446     2.04
##  8          1       2       3 un      299    298  0.510    0.56   0.148     2.12
##  9          1       2       3 un      312    311  0.370    3.62   0.390    33.5 
## 10          1       2       3 un      322    321  0.201    0.263  0.0265    2.62
## # … with 249,666 more rows, 4 more variables: LOD <dbl>, `AMOVA Fst` <dbl>,
## #   `Smoothed AMOVA Fst` <dbl>, `Smoothed AMOVA Fst P-value` <dbl>, and
## #   abbreviated variable names ¹​`# Locus ID`, ²​`Pop 1 ID`, ³​`Pop 2 ID`,
## #   ⁴​`Fisher's P`, ⁵​`Odds Ratio`, ⁶​`CI Low`, ⁷​`CI High`
## # ℹ Use `print(n = ...)` to see more rows, and `colnames()` to see all variable names
```
…
```
## [1] 7.853872
```

```r
p5$p_log_transform[p5$p_log_transform =='Inf' ]= 10
p5
```

```
## # A tibble: 249,676 × 16
##    # Locus …¹ Pop 1…² Pop 2…³ Chr      BP Column Fishe…⁴ Odds …⁵ CI Lo…⁶ CI Hi…⁷
##         <dbl>   <dbl>   <dbl> <chr> <dbl>  <dbl>   <dbl>   <dbl>   <dbl>   <dbl>
##  1          1       2       3 un       85     84  1        1.01   0.359     2.85
##  2          1       2       3 un      116    115  0.429    0.576  0.202     1.65
##  3          1       2       3 un      118    117  1        0.864  0.0527   14.2 
##  4          1       2       3 un      151    150  1        1.76   0.155    20.0 
##  5          1       2       3 un      204    203  0.464    0.426  0.0376    4.84
##  6          1       2       3 un      207    206  0.0358   7.85   0.947    65.0 
##  7          1       2       3 un      247    246  1        0.954  0.446     2.04
##  8          1       2       3 un      299    298  0.510    0.56   0.148     2.12
##  9          1       2       3 un      312    311  0.370    3.62   0.390    33.5 
## 10          1       2       3 un      322    321  0.201    0.263  0.0265    2.62
## # … with 249,666 more rows, 6 more variables: LOD <dbl>, `AMOVA Fst` <dbl>,
## #   `Smoothed AMOVA Fst` <dbl>, `Smoothed AMOVA Fst P-value` <dbl>,
## #   bpfake <int>, p_log_transform <dbl>, and abbreviated variable names
## #   ¹​`# Locus ID`, ²​`Pop 1 ID`, ³​`Pop 2 ID`, ⁴​`Fisher's P`, ⁵​`Odds Ratio`,
## #   ⁶​`CI Low`, ⁷​`CI High`
## # ℹ Use `print(n = ...)` to see more rows, and `colnames()` to see all variable names
```
…
```r
p10
```

```
## # A tibble: 284,742 × 14
##    # Locus …¹ Pop 1…² Pop 2…³ Chr      BP Column Fishe…⁴ Odds …⁵ CI Lo…⁶ CI Hi…⁷
##         <dbl>   <dbl>   <dbl> <chr> <dbl>  <dbl>   <dbl>   <dbl>   <dbl>   <dbl>
##  1          1       4       5 un       85     84   0.576   1.53   0.512     4.60
##  2          1       4       5 un      116    115   1       0.825  0.219     3.12
##  3          1       4       5 un      118    117   0.233   0.304  0.0309    3.00
##  4          1       4       5 un      169    168   1       1.8    0.159    20.3 
##  5          1       4       5 un      207    206   0.515   0.566  0.152     2.11
##  6          1       4       5 un      229    228   1       1.8    0.159    20.3 
##  7          1       4       5 un      235    234   0.471   0.438  0.0388    4.95
##  8          1       4       5 un      247    246   1       0.989  0.437     2.24
##  9          1       4       5 un      299    298   1       0.971  0.245     3.85
## 10          1       4       5 un      312    311   0.197   0.223  0.0242    2.05
## # … with 284,732 more rows, 4 more variables: LOD <dbl>, `AMOVA Fst` <dbl>,
## #   `Smoothed AMOVA Fst` <dbl>, `Smoothed AMOVA Fst P-value` <dbl>, and
## #   abbreviated variable names ¹​`# Locus ID`, ²​`Pop 1 ID`, ³​`Pop 2 ID`,
## #   ⁴​`Fisher's P`, ⁵​`Odds Ratio`, ⁶​`CI Low`, ⁷​`CI High`
## # ℹ Use `print(n = ...)` to see more rows, and `colnames()` to see all variable names
```
…
```
## [1] 6.244888
```

```r
#View(p10)
p10$p_log_transform[p10$p_log_transform =='Inf' ]= 10
p10
```

```
## # A tibble: 284,742 × 16
##    # Locus …¹ Pop 1…² Pop 2…³ Chr      BP Column Fishe…⁴ Odds …⁵ CI Lo…⁶ CI Hi…⁷
##         <dbl>   <dbl>   <dbl> <chr> <dbl>  <dbl>   <dbl>   <dbl>   <dbl>   <dbl>
##  1          1       4       5 un       85     84   0.576   1.53   0.512     4.60
##  2          1       4       5 un      116    115   1       0.825  0.219     3.12
##  3          1       4       5 un      118    117   0.233   0.304  0.0309    3.00
##  4          1       4       5 un      169    168   1       1.8    0.159    20.3 
##  5          1       4       5 un      207    206   0.515   0.566  0.152     2.11
##  6          1       4       5 un      229    228   1       1.8    0.159    20.3 
##  7          1       4       5 un      235    234   0.471   0.438  0.0388    4.95
##  8          1       4       5 un      247    246   1       0.989  0.437     2.24
##  9          1       4       5 un      299    298   1       0.971  0.245     3.85
## 10          1       4       5 un      312    311   0.197   0.223  0.0242    2.05
## # … with 284,732 more rows, 6 more variables: LOD <dbl>, `AMOVA Fst` <dbl>,
## #   `Smoothed AMOVA Fst` <dbl>, `Smoothed AMOVA Fst P-value` <dbl>,
## #   bpfake <int>, p_log_transform <dbl>, and abbreviated variable names
## #   ¹​`# Locus ID`, ²​`Pop 1 ID`, ³​`Pop 2 ID`, ⁴​`Fisher's P`, ⁵​`Odds Ratio`,
## #   ⁶​`CI Low`, ⁷​`CI High`
## # ℹ Use `print(n = ...)` to see more rows, and `colnames()` to see all variable names
```
…
